{
	"info": {
		"_postman_id": "e7c740d7-5a2c-455a-a1f1-aa0519668f53",
		"name": "ProductsUp",
		"schema": "https://schema.getpostman.com/json/collection/v2.1.0/collection.json"
	},
	"item": [
		{
			"name": "http://localhost:8000/api/v1/dataset",
			"request": {
				"method": "POST",
				"header": [
					{
						"key": "x-security-token",
						"value": "66LJ$3ItJ8K#HLbG",
						"type": "text"
					}
				],
				"body": {
					"mode": "raw",
					"raw": "{\n\t\"title\": \"Propranolol Hydrochloride\",\n\t\"description\": \"Nulla tempus.\",\n\t\"short_description\": \"Nulla tempus.\",\n\t\"category\": \"\",\n\t\"price\": \"43.6\",\n\t\"image_link\": \"http://dummyimage.com/162x214.jpg/cc0000/ffffff\",\n\t\"deeplink\": \"http://thetimes.co.uk/ante/ipsum/primis/in/faucibus/orci/luctus.aspx?hac=placerat&habitasse=praesent&platea=blandit&dictumst=nam&maecenas=nulla&ut=integer&massa=pede&quis=justo&augue=lacinia&luctus=eget&tincidunt=tincidunt&nulla=eget&mollis=tempus&molestie=vel&lorem=pede&quisque=morbi&ut=porttitor&erat=lorem&curabitur=id&gravida=ligula&nisi=suspendisse&at=ornare&nibh=consequat&in=lectus&hac=in&habitasse=est&platea=risus&dictumst=auctor&aliquam=sed&augue=tristique&quam=in&sollicitudin=tempus&vitae=sit&consectetuer=amet&eget=sem&rutrum=fusce&at=consequat&lorem=nulla&integer=nisl&tincidunt=nunc&ante=nisl&vel=duis&ipsum=bibendum&praesent=felis&blandit=sed&lacinia=interdum&erat=venenatis&vestibulum=turpis&sed=enim&magna=blandit&at=mi&nunc=in\"\n}"
				},
				"url": {
					"raw": "http://localhost:8000/api/v1/dataset",
					"protocol": "http",
					"host": [
						"localhost"
					],
					"port": "8000",
					"path": [
						"api",
						"v1",
						"dataset"
					]
				},
				"description": "Create"
			},
			"response": []
		},
		{
			"name": "http://localhost:8000/api/v1/dataset/3021",
			"request": {
				"method": "GET",
				"header": [
					{
						"key": "x-security-token",
						"value": "66LJ$3ItJ8K#HLbG",
						"type": "text"
					}
				],
				"body": {
					"mode": "raw",
					"raw": ""
				},
				"url": {
					"raw": "http://localhost:8000/api/v1/dataset/3033",
					"protocol": "http",
					"host": [
						"localhost"
					],
					"port": "8000",
					"path": [
						"api",
						"v1",
						"dataset",
						"3033"
					]
				},
				"description": "GET"
			},
			"response": []
		},
		{
			"name": "http://localhost:8000/api/v1/dataset",
			"request": {
				"method": "GET",
				"header": [
					{
						"key": "x-security-token",
						"value": "66LJ$3ItJ8K#HLbG",
						"type": "text"
					}
				],
				"body": {
					"mode": "raw",
					"raw": ""
				},
				"url": {
					"raw": "http://localhost:8000/api/v1/dataset",
					"protocol": "http",
					"host": [
						"localhost"
					],
					"port": "8000",
					"path": [
						"api",
						"v1",
						"dataset"
					],
					"query": [
						{
							"key": "",
							"value": "",
							"disabled": true
						}
					]
				}
			},
			"response": []
		},
		{
			"name": "http://localhost:8000/api/v1/dataset/3021",
			"request": {
				"method": "DELETE",
				"header": [
					{
						"key": "x-security-token",
						"value": "66LJ$3ItJ8K#HLbG",
						"type": "text"
					}
				],
				"body": {
					"mode": "raw",
					"raw": ""
				},
				"url": {
					"raw": "http://localhost:8000/api/v1/dataset/3032",
					"protocol": "http",
					"host": [
						"localhost"
					],
					"port": "8000",
					"path": [
						"api",
						"v1",
						"dataset",
						"3032"
					]
				}
			},
			"response": []
		},
		{
			"name": "http://localhost:8000/api/v1/dataset/3027",
			"request": {
				"method": "PATCH",
				"header": [
					{
						"key": "x-security-token",
						"value": "66LJ$3ItJ8K#HLbG",
						"type": "text"
					}
				],
				"body": {
					"mode": "raw",
					"raw": "{\n\t\"title\": \"New title\",\n\t\"description\": \"New description\"\n}"
				},
				"url": {
					"raw": "http://localhost:8000/api/v1/dataset/3032",
					"protocol": "http",
					"host": [
						"localhost"
					],
					"port": "8000",
					"path": [
						"api",
						"v1",
						"dataset",
						"3032"
					]
				}
			},
			"response": []
		},
		{
			"name": "http://localhost:8000/api/v1/dataset/3027",
			"request": {
				"method": "PUT",
				"header": [
					{
						"key": "x-security-token",
						"value": "66LJ$3ItJ8K#HLbG",
						"type": "text"
					}
				],
				"body": {
					"mode": "raw",
					"raw": "{\n\t\"title\": \"Propranolol Hydrochloride\",\n\t\"description\": \"Nulla tempus.\",\n\t\"short_description\": \"Nulla tempus.\",\n\t\"category\": \"\",\n\t\"price\": \"43.6\",\n\t\"image_link\": \"http://dummyimage.com/162x214.jpg/cc0000/ffffff\",\n\t\"deeplink\": \"http://thetimes.co.uk/ante/ipsum/primis/in/faucibus/orci/luctus.aspx?hac=placerat&habitasse=praesent&platea=blandit&dictumst=nam&maecenas=nulla&ut=integer&massa=pede&quis=justo&augue=lacinia&luctus=eget&tincidunt=tincidunt&nulla=eget&mollis=tempus&molestie=vel&lorem=pede&quisque=morbi&ut=porttitor&erat=lorem&curabitur=id&gravida=ligula&nisi=suspendisse&at=ornare&nibh=consequat&in=lectus&hac=in&habitasse=est&platea=risus&dictumst=auctor&aliquam=sed&augue=tristique&quam=in&sollicitudin=tempus&vitae=sit&consectetuer=amet&eget=sem&rutrum=fusce&at=consequat&lorem=nulla&integer=nisl&tincidunt=nunc&ante=nisl&vel=duis&ipsum=bibendum&praesent=felis&blandit=sed&lacinia=interdum&erat=venenatis&vestibulum=turpis&sed=enim&magna=blandit&at=mi&nunc=in\"\n}"
				},
				"url": {
					"raw": "http://localhost:8000/api/v1/dataset/3032",
					"protocol": "http",
					"host": [
						"localhost"
					],
					"port": "8000",
					"path": [
						"api",
						"v1",
						"dataset",
						"3032"
					]
				}
			},
			"response": []
		},
		{
			"name": "​http://localhost:8000/api/v1/dataset?q[description][]=sodium&q[description][]=test&q[title]=bla",
			"request": {
				"method": "GET",
				"header": [
					{
						"key": "x-security-token",
						"value": "66LJ$3ItJ8K#HLbG",
						"type": "text"
					}
				],
				"body": {
					"mode": "raw",
					"raw": ""
				},
				"url": {
					"raw": "http://localhost:8000/api/v1/dataset?q[title][]=Propranolol&q[title][]=Hydrochloride&q[description]=Nulla",
					"protocol": "http",
					"host": [
						"localhost"
					],
					"port": "8000",
					"path": [
						"api",
						"v1",
						"dataset"
					],
					"query": [
						{
							"key": "q[description][]",
							"value": "sodium",
							"disabled": true
						},
						{
							"key": "q[description][]",
							"value": "bla",
							"disabled": true
						},
						{
							"key": "q[title]",
							"value": "hura",
							"disabled": true
						},
						{
							"key": "q[title][]",
							"value": "Propranolol"
						},
						{
							"key": "q[title][]",
							"value": "Hydrochloride"
						},
						{
							"key": "q[description]",
							"value": "Nulla"
						}
					]
				}
			},
			"response": []
		},
		{
			"name": "http://localhost:8000/api/v1/dataset",
			"request": {
				"method": "OPTIONS",
				"header": [
					{
						"key": "x-security-token",
						"value": "66LJ$3ItJ8K#HLbG",
						"type": "text",
						"disabled": true
					}
				],
				"body": {
					"mode": "raw",
					"raw": ""
				},
				"url": {
					"raw": "http://localhost:8000/api/v1/dataset/",
					"protocol": "http",
					"host": [
						"localhost"
					],
					"port": "8000",
					"path": [
						"api",
						"v1",
						"dataset",
						""
					]
				}
			},
			"response": []
		}
	]
}